<svg xmlns="http://www.w3.org/2000/svg" id="prefix__calendar-2" width="22.373" height="22.88" viewBox="0 0 22.373 22.88">
    <defs>
        <style>
            .prefix__cls-1{fill:#8a296d}
        </style>
    </defs>
    <g id="prefix__Group_302" data-name="Group 302">
        <path id="prefix__Path_2385" d="M119.886 258.761a.519.519 0 0 0-.519-.519h-1.812a.519.519 0 0 0-.519.519v1.812a.519.519 0 0 0 .519.519h1.812a.519.519 0 0 0 .519-.519v-1.812z" class="prefix__cls-1" data-name="Path 2385" transform="translate(-111.803 -246.138)"/>
        <path id="prefix__Path_2386" d="M216.52 258.761a.519.519 0 0 0-.519-.519h-1.812a.519.519 0 0 0-.519.519v1.812a.519.519 0 0 0 .519.519H216a.519.519 0 0 0 .519-.519z" class="prefix__cls-1" data-name="Path 2386" transform="translate(-203.909 -246.138)"/>
        <path id="prefix__Path_2387" d="M313.149 258.761a.519.519 0 0 0-.519-.519h-1.812a.519.519 0 0 0-.519.519v1.812a.519.519 0 0 0 .519.519h1.812a.519.519 0 0 0 .519-.519z" class="prefix__cls-1" data-name="Path 2387" transform="translate(-296.008 -246.138)"/>
        <path id="prefix__Path_2388" d="M119.886 355.394a.519.519 0 0 0-.519-.519h-1.812a.519.519 0 0 0-.519.519v1.812a.519.519 0 0 0 .519.519h1.812a.519.519 0 0 0 .519-.519v-1.812z" class="prefix__cls-1" data-name="Path 2388" transform="translate(-111.803 -338.242)"/>
        <path id="prefix__Path_2389" d="M216.52 355.394a.519.519 0 0 0-.519-.519h-1.812a.519.519 0 0 0-.519.519v1.812a.519.519 0 0 0 .519.519H216a.519.519 0 0 0 .519-.519z" class="prefix__cls-1" data-name="Path 2389" transform="translate(-203.909 -338.242)"/>
        <path id="prefix__Path_2390" d="M313.149 355.394a.519.519 0 0 0-.519-.519h-1.812a.519.519 0 0 0-.519.519v1.812a.519.519 0 0 0 .519.519h1.813a.519.519 0 0 0 .519-.519v-1.812z" class="prefix__cls-1" data-name="Path 2390" transform="translate(-296.008 -338.242)"/>
        <path id="prefix__Path_2391" d="M25.792 54.152v2.768a2.261 2.261 0 0 1-2.266 2.259H22.1a2.272 2.272 0 0 1-2.279-2.259v-2.778h-6.445v2.778a2.272 2.272 0 0 1-2.276 2.259H9.668A2.26 2.26 0 0 1 7.4 56.92v-2.768A2.06 2.06 0 0 0 5.411 56.2v16.22a2.061 2.061 0 0 0 2.051 2.063h18.271a2.063 2.063 0 0 0 2.051-2.063V56.2a2.06 2.06 0 0 0-1.992-2.048zm-.664 17.259a.887.887 0 0 1-.887.887H8.914a.887.887 0 0 1-.887-.887v-8.378a.887.887 0 0 1 .887-.887h15.328a.887.887 0 0 1 .887.887v8.378z" class="prefix__cls-1" data-name="Path 2391" transform="translate(-5.411 -51.604)"/>
        <path id="prefix__Path_2392" d="M80.327 6.091h1.414a.777.777 0 0 0 .777-.777V.777A.777.777 0 0 0 81.741 0h-1.414a.777.777 0 0 0-.777.777v4.537a.777.777 0 0 0 .777.777z" class="prefix__cls-1" data-name="Path 2392" transform="translate(-76.075)"/>
        <path id="prefix__Path_2393" d="M345.235 6.091h1.414a.777.777 0 0 0 .777-.777V.777a.777.777 0 0 0-.777-.777h-1.414a.777.777 0 0 0-.777.777v4.537a.777.777 0 0 0 .777.777z" class="prefix__cls-1" data-name="Path 2393" transform="translate(-328.567)"/>
    </g>
</svg>
