<svg xmlns="http://www.w3.org/2000/svg" width="24" height="24" viewBox="0 0 24 24">
    <g id="prefix__Group_8526" data-name="Group 8526" transform="translate(-307 -308)">
        <g id="prefix__Ellipse_174" data-name="Ellipse 174" transform="translate(307 308)" style="fill:#fff;stroke:#8b2d6d">
            <circle cx="12" cy="12" r="12" style="stroke:none"/>
            <circle cx="12" cy="12" r="11.5" style="fill:none"/>
        </g>
        <text id="prefix__i" transform="translate(317 325)" style="fill:#943f7a;font-size:14px;font-family:'.AppleSystemUIFont'">
            <tspan x="0" y="0">i</tspan>
        </text>
    </g>
</svg>
