<svg xmlns="http://www.w3.org/2000/svg" width="19.237" height="18.497" viewBox="0 0 19.237 18.497">
    <g>
        <g data-name="Group 292">
            <g data-name="Group 291">
                <g data-name="Group 290">
                    <path d="M16.612 0H4.964A2.629 2.629 0 0 0 2.34 2.625v10.638a2.625 2.625 0 0 0 .3 5.234h9.489a2.629 2.629 0 0 0 2.619-2.624V5.249h1.864a2.625 2.625 0 1 0 0-5.249zm-6.348 17.72H2.635a1.85 1.85 0 1 1 0-3.7h7.629a2.621 2.621 0 0 0 0 3.7zm3.712-15.1v13.253a1.848 1.848 0 1 1-1.848-1.848.389.389 0 0 0 0-.777h-9V2.625A1.852 1.852 0 0 1 4.964.773h9.772a2.617 2.617 0 0 0-.76 1.851zm2.248 1.853h-1.472v-.637h1.471zM17 4.434v-.986a.388.388 0 0 0-.388-.388h-1.86v-.435A1.848 1.848 0 1 1 17 4.434z" data-name="Path 2372" transform="translate(0 -7.627) translate(0 7.627)"/>
                </g>
            </g>
        </g>
        <g data-name="Group 294">
            <g data-name="Group 293">
                <path d="M6.068 0H.388a.389.389 0 0 0 0 .777h5.68a.389.389 0 1 0 0-.777z" data-name="Path 2373" transform="translate(0 -7.627) translate(5.259 11.479)"/>
            </g>
        </g>
        <g data-name="Group 296">
            <g data-name="Group 295">
                <path d="M6.068 0H.388a.389.389 0 0 0 0 .777h5.68a.389.389 0 1 0 0-.777z" data-name="Path 2374" transform="translate(0 -7.627) translate(5.259 14.251)"/>
            </g>
        </g>
        <g data-name="Group 298">
            <g data-name="Group 297">
                <path d="M6.068 0H.388a.389.389 0 0 0 0 .777h5.68a.389.389 0 1 0 0-.777z" data-name="Path 2375" transform="translate(0 -7.627) translate(5.259 17.023)"/>
            </g>
        </g>
    </g>
</svg>
