<svg xmlns="http://www.w3.org/2000/svg" width="18.282" height="18" viewBox="0 0 18.282 18">
    <g>
        <path d="M16.999 10.264a.321.321 0 1 1-.321-.321.321.321 0 0 1 .321.321zm0 0" data-name="Path 2378"/>
        <path d="M17 8.692V7.46a2.829 2.829 0 0 0-2.726-2.915 2.84 2.84 0 0 0-2.726 2.829h.019-.019V13.7a3.527 3.527 0 0 1-3.368 3.66 3.527 3.527 0 0 1-3.369-3.66v-.87c.353 0 .641-.289.641-.962v-1.059c.109-.023.215-.048.321-.077a4.2 4.2 0 0 0 3.208-3.971v-.346H8.66l-.016-4.494A1.6 1.6 0 0 0 7.326.35 3.336 3.336 0 0 0 6.97.327a.639.639 0 1 0-.006.645A2.6 2.6 0 0 1 7.306 1a.958.958 0 0 1 .7.917l.016 4.494H7.7v.356a2.872 2.872 0 0 1-2.069 2.7 3.16 3.16 0 0 1-.962.151h-.018a3.248 3.248 0 0 1-.978-.151 3.206 3.206 0 0 1-2.39-2.7v-.352H.962V1.924A.96.96 0 0 1 1.674 1a2.521 2.521 0 0 1 .343-.031.635.635 0 0 0 .548.314.641.641 0 1 0-.554-.956 3.336 3.336 0 0 0-.356.023A1.6 1.6 0 0 0 .321 1.924v4.49H0v.346a4.2 4.2 0 0 0 3.207 3.971c.106.029.212.055.321.077v1.058c0 .674.289.962.641.962v.872a4.169 4.169 0 0 0 4.01 4.3 4.169 4.169 0 0 0 4.009-4.3V7.393a2.382 2.382 0 0 1 .638-1.562 1.992 1.992 0 0 1 1.446-.645 2.189 2.189 0 0 1 2.086 2.274v1.232a1.6 1.6 0 1 0 .641 0zm-.321 2.534a.962.962 0 1 1 .962-.962.962.962 0 0 1-.962.962zm0 0" data-name="Path 2379"/>
    </g>
</svg>
