<svg xmlns="http://www.w3.org/2000/svg" width="22" height="22" viewBox="0 0 22 22">
    <path d="M22 9.226h-.8l-1.188.625a1.764 1.764 0 0 0-.423-.174L18.1 9.3v-.17a2.492 2.492 0 0 0 1.061-2.03v-.62a2.549 2.549 0 0 0-2.407-2.58h-.2l.387-.9-1.879-1.878-1.108.721a6 6 0 0 0-1.328-.551L12.352 0h-2.7l-.278 1.293a6 6 0 0 0-1.328.551l-1.107-.721L5.061 3l.381.908L5.4 3.9a2.485 2.485 0 0 0-2.56 2.482V7.1A2.491 2.491 0 0 0 3.9 9.133V9.3l-.975.244-1.764-1.028H0v7.353l3.491 1.163h.68l.085-.3 1.07.642a1.1 1.1 0 0 0 1.065 1.07 1.1 1.1 0 0 0 1.065 1.065 1.1 1.1 0 0 0 1.064 1.068 1.1 1.1 0 0 0 1.726.876l.314.278a1.08 1.08 0 0 0 .714.27h.066a1.08 1.08 0 0 0 1.078-1.066 1.079 1.079 0 0 0 1.065-1.065 1.079 1.079 0 0 0 1.064-1.07 1.091 1.091 0 0 0 1.066-1.089 1.039 1.039 0 0 0-.005-.106L22 14.413zm-3.548-2.75V7.1a1.781 1.781 0 0 1-.888 1.535l-.177.1v1.123l1.773.443-3.9 2.054V11.4a1.766 1.766 0 0 0-.508-1.237l1.218-.3V8.734l-.177-.1A1.779 1.779 0 0 1 14.9 7.1v-.71a1.774 1.774 0 0 1 1.829-1.773 1.835 1.835 0 0 1 1.723 1.859zm-6.917 5.6l-1.606-.513a4.382 4.382 0 0 0-2.274-.1l-.2.045v-.1a1.064 1.064 0 0 1 .806-1.033l2.033-.508V8.734l-.177-.1A1.779 1.779 0 0 1 9.226 7.1v-.71a1.774 1.774 0 0 1 1.829-1.773 1.835 1.835 0 0 1 1.719 1.863v.62a1.781 1.781 0 0 1-.888 1.535l-.177.1v1.123l2.032.508a1.064 1.064 0 0 1 .806 1.033v1.33l-.088.046h-.217l-2.182-.623a2.237 2.237 0 0 0-.525-.077zm-4-6.765a3.9 3.9 0 0 1 6.923-.029 2.468 2.468 0 0 0-.261 1.1V7.1a2.491 2.491 0 0 0 1.065 2.036V9.3l-1.419.355-1.424-.355v-.17a2.492 2.492 0 0 0 1.065-2.03v-.62a2.549 2.549 0 0 0-2.408-2.58 2.484 2.484 0 0 0-2.56 2.483V7.1a2.491 2.491 0 0 0 1.065 2.033V9.3l-1.419.355-1.42-.355v-.17A2.492 2.492 0 0 0 7.806 7.1v-.62a2.615 2.615 0 0 0-.275-1.169zM5.9 3.165l1.133-1.134 1 .649.191-.117a5.3 5.3 0 0 1 1.536-.637l.218-.052.245-1.164h1.554l.246 1.164.218.052a5.3 5.3 0 0 1 1.536.637l.191.117 1-.649L16.1 3.163l-.4.942a2.48 2.48 0 0 0-.749.5c-.015.014-.027.029-.041.044a4.608 4.608 0 0 0-7.826.021 2.5 2.5 0 0 0-.784-.556zM4.613 9.858V8.734l-.177-.1A1.779 1.779 0 0 1 3.548 7.1v-.71a1.774 1.774 0 0 1 1.83-1.776A1.835 1.835 0 0 1 7.1 6.476V7.1a1.781 1.781 0 0 1-.888 1.535l-.177.1v1.123l1.218.3a1.766 1.766 0 0 0-.511 1.242v.263l-1.107.246.029-.1.014-.656-1.872-1.094zM.71 9.226h.258l2.552 1.488-1.287 5.151-1.523-.508zm2.9 7.1l-.7-.233 1.251-5 .809.472v.1l-1.334 4.658zm2.426 1.022a.4.4 0 0 1 .116-.281l.624-.624a.4.4 0 0 1 .559.557l-.624.624a.4.4 0 0 1-.679-.281zM7.1 18.409a.4.4 0 0 1 .116-.281l.624-.624a.4.4 0 0 1 .563.563l-.624.624a.4.4 0 0 1-.679-.281zm1.065 1.065a.4.4 0 0 1 .116-.281l.624-.624a.4.4 0 0 1 .563.563l-.624.624a.4.4 0 0 1-.679-.281zm1.462 1.462a.4.4 0 0 1-.281-.679l.624-.624a.4.4 0 0 1 .563.563l-.624.624a.4.4 0 0 1-.285.115zm1.716.355h-.066a.368.368 0 0 1-.244-.093l-.265-.234.266-.266a1.1 1.1 0 0 0 .224-.33l.323.269a.37.37 0 0 1-.237.654zm3.179-3.191h-.062a.381.381 0 0 1-.244-.089l-1.924-1.6-.455.545 1.869 1.557a.37.37 0 0 1-.237.654h-.077a.37.37 0 0 1-.237-.086l-1.927-1.606-.455.545 1.869 1.557a.37.37 0 0 1-.237.654.586.586 0 0 1-.373-.135l-.792-.66a1.1 1.1 0 0 0-.953-.62 1.1 1.1 0 0 0-1.065-1.065 1.1 1.1 0 0 0-1.065-1.065 1.1 1.1 0 0 0-1.886-.744l-.624.624a1.094 1.094 0 0 0-.1.121l-1.09-.654.956-3.344 2.4-.533a3.655 3.655 0 0 1 1.9.086l.523.167-1.772.886a1.183 1.183 0 0 0-.656 1.063v.07a1.188 1.188 0 0 0 1.8 1.019l1.321-.792a.732.732 0 0 1 .851.082l3 2.7a.382.382 0 0 1-.255.666zm6.769-4.123l-5.978 2.989c-.019-.021-.04-.04-.061-.059l-3-2.7a1.428 1.428 0 0 0-1.691-.164l-1.322.793a.479.479 0 0 1-.725-.411v-.07a.476.476 0 0 1 .265-.428l1.979-.99a1.542 1.542 0 0 1 1.106-.1l2.23.637.54.014 6.654-3.5zm0 0"/>
</svg>
